   ++++++++++++++++++V0.0.1.6 Release +++++++++++++++++++++++

QG-129
5. Push Notification not working
QG-96
Settings -> Billing -> Payment History
QG-126
Bugs (APP)
QG-132
Mobile App>>
QG-140
Mobile App>>Subscription Package
	
QG-147
Owners Portal>> Menu>> Add Menu

QG-115
Owner Profile Page>> Mobile Website

QG-133
Mobile App>>Android App>>

QG-144
Mobile App

QG-124
Edge Browser

QG-124
Edge Browser

QG-121
Owners Menu Addition ( Mobile Browser/Website)

QG-111
Owner Profile Page>> Mobile Website

QG-112
Owner Profile Page>> Mobile Website

QG-113
Owner Profile Page>> Mobile Website


   ++++++++++++++++++V0.0.1.6 Release +++++++++++++++++++++++
